<?xml version="1.0" encoding="UTF-8"?>
<svg xmlns="http://www.w3.org/2000/svg" xmlns:xlink="http://www.w3.org/1999/xlink" width="500pt" height="500pt" viewBox="0 0 500 500" version="1.1">
<g id="surface1">
<path style=" stroke:none;fill-rule:nonzero;fill:rgb(80.392157%,63.137255%,65.490196%);fill-opacity:1;" d="M 398.4375 195.3125 L 460.9375 195.3125 C 469.566406 195.3125 476.5625 202.308594 476.5625 210.9375 L 476.5625 414.0625 C 476.5625 439.949219 455.574219 460.9375 429.6875 460.9375 C 403.800781 460.9375 382.8125 439.949219 382.8125 414.0625 L 382.8125 210.9375 C 382.8125 202.308594 389.808594 195.3125 398.4375 195.3125 Z M 398.4375 195.3125 "/>
<path style=" stroke:none;fill-rule:nonzero;fill:rgb(98.039216%,93.72549%,87.058824%);fill-opacity:1;" d="M 406.25 460.9375 L 85.9375 460.9375 C 60.050781 460.9375 39.0625 439.949219 39.0625 414.0625 L 39.0625 62.5 C 39.0625 49.554688 49.554688 39.0625 62.5 39.0625 L 359.375 39.0625 C 372.320312 39.0625 382.8125 49.554688 382.8125 62.5 L 382.8125 437.5 Z M 406.25 460.9375 "/>
<path style=" stroke:none;fill-rule:nonzero;fill:rgb(100%,96.862745%,94.117647%);fill-opacity:1;" d="M 54.6875 39.0625 L 367.1875 39.0625 C 375.816406 39.0625 382.8125 46.058594 382.8125 54.6875 C 382.8125 63.316406 375.816406 70.3125 367.1875 70.3125 L 54.6875 70.3125 C 46.058594 70.3125 39.0625 63.316406 39.0625 54.6875 C 39.0625 46.058594 46.058594 39.0625 54.6875 39.0625 Z M 54.6875 39.0625 "/>
<path style=" stroke:none;fill-rule:nonzero;fill:rgb(93.72549%,84.705882%,74.509804%);fill-opacity:1;" d="M 382.8125 382.8125 L 39.0625 382.8125 L 39.0625 414.0625 C 39.0625 439.949219 60.050781 460.9375 85.9375 460.9375 L 406.25 460.9375 L 382.8125 437.5 Z M 382.8125 382.8125 "/>
<path style=" stroke:none;fill-rule:nonzero;fill:rgb(92.156863%,58.823529%,59.215686%);fill-opacity:1;" d="M 257.8125 109.375 L 304.6875 109.375 C 309.003906 109.375 312.5 105.878906 312.5 101.5625 C 312.5 97.246094 309.003906 93.75 304.6875 93.75 L 257.8125 93.75 C 253.496094 93.75 250 97.246094 250 101.5625 C 250 105.878906 253.496094 109.375 257.8125 109.375 Z M 101.5625 109.375 L 226.5625 109.375 C 230.878906 109.375 234.375 105.878906 234.375 101.5625 C 234.375 97.246094 230.878906 93.75 226.5625 93.75 L 101.5625 93.75 C 97.246094 93.75 93.75 97.246094 93.75 101.5625 C 93.75 105.878906 97.246094 109.375 101.5625 109.375 Z M 179.6875 125 L 101.5625 125 C 97.246094 125 93.75 128.496094 93.75 132.8125 C 93.75 137.128906 97.246094 140.625 101.5625 140.625 L 179.6875 140.625 C 184.003906 140.625 187.5 137.128906 187.5 132.8125 C 187.5 128.496094 184.003906 125 179.6875 125 Z M 179.6875 125 "/>
<path style=" stroke:none;fill-rule:nonzero;fill:rgb(55.294118%,42.352941%,62.352941%);fill-opacity:1;" d="M 179.6875 187.5 L 101.5625 187.5 C 97.246094 187.5 93.75 190.996094 93.75 195.3125 C 93.75 199.628906 97.246094 203.125 101.5625 203.125 L 179.6875 203.125 C 184.003906 203.125 187.5 199.628906 187.5 195.3125 C 187.5 190.996094 184.003906 187.5 179.6875 187.5 Z M 179.6875 218.75 L 101.5625 218.75 C 97.246094 218.75 93.75 222.246094 93.75 226.5625 C 93.75 230.878906 97.246094 234.375 101.5625 234.375 L 179.6875 234.375 C 184.003906 234.375 187.5 230.878906 187.5 226.5625 C 187.5 222.246094 184.003906 218.75 179.6875 218.75 Z M 179.6875 250 L 101.5625 250 C 97.246094 250 93.75 253.496094 93.75 257.8125 C 93.75 262.128906 97.246094 265.625 101.5625 265.625 L 179.6875 265.625 C 184.003906 265.625 187.5 262.128906 187.5 257.8125 C 187.5 253.496094 184.003906 250 179.6875 250 Z M 179.6875 281.25 L 101.5625 281.25 C 97.246094 281.25 93.75 284.746094 93.75 289.0625 C 93.75 293.378906 97.246094 296.875 101.5625 296.875 L 179.6875 296.875 C 184.003906 296.875 187.5 293.378906 187.5 289.0625 C 187.5 284.746094 184.003906 281.25 179.6875 281.25 Z M 179.6875 312.5 L 101.5625 312.5 C 97.246094 312.5 93.75 315.996094 93.75 320.3125 C 93.75 324.628906 97.246094 328.125 101.5625 328.125 L 179.6875 328.125 C 184.003906 328.125 187.5 324.628906 187.5 320.3125 C 187.5 315.996094 184.003906 312.5 179.6875 312.5 Z M 304.6875 187.5 L 226.5625 187.5 C 222.246094 187.5 218.75 190.996094 218.75 195.3125 C 218.75 199.628906 222.246094 203.125 226.5625 203.125 L 304.6875 203.125 C 309.003906 203.125 312.5 199.628906 312.5 195.3125 C 312.5 190.996094 309.003906 187.5 304.6875 187.5 Z M 304.6875 218.75 L 226.5625 218.75 C 222.246094 218.75 218.75 222.246094 218.75 226.5625 C 218.75 230.878906 222.246094 234.375 226.5625 234.375 L 304.6875 234.375 C 309.003906 234.375 312.5 230.878906 312.5 226.5625 C 312.5 222.246094 309.003906 218.75 304.6875 218.75 Z M 304.6875 250 L 226.5625 250 C 222.246094 250 218.75 253.496094 218.75 257.8125 C 218.75 262.128906 222.246094 265.625 226.5625 265.625 L 304.6875 265.625 C 309.003906 265.625 312.5 262.128906 312.5 257.8125 C 312.5 253.496094 309.003906 250 304.6875 250 Z M 312.5 289.0625 C 312.5 284.746094 309.003906 281.25 304.6875 281.25 L 226.5625 281.25 C 222.246094 281.25 218.75 284.746094 218.75 289.0625 C 218.75 293.378906 222.246094 296.875 226.5625 296.875 L 304.6875 296.875 C 309.003906 296.875 312.5 293.378906 312.5 289.0625 Z M 312.5 289.0625 "/>
<path style=" stroke:none;fill-rule:nonzero;fill:rgb(92.156863%,58.823529%,59.215686%);fill-opacity:1;" d="M 312.5 132.8125 C 312.5 128.496094 309.003906 125 304.6875 125 L 210.9375 125 C 206.621094 125 203.125 128.496094 203.125 132.8125 C 203.125 137.128906 206.621094 140.625 210.9375 140.625 L 304.6875 140.625 C 309.003906 140.625 312.5 137.128906 312.5 132.8125 Z M 312.5 132.8125 "/>
<path style=" stroke:none;fill-rule:nonzero;fill:rgb(55.294118%,42.352941%,62.352941%);fill-opacity:1;" d="M 351.5625 375 L 320.3125 375 C 315.996094 375 312.5 378.496094 312.5 382.8125 C 312.5 387.128906 315.996094 390.625 320.3125 390.625 L 351.5625 390.625 C 355.878906 390.625 359.375 387.128906 359.375 382.8125 C 359.375 378.496094 355.878906 375 351.5625 375 Z M 351.5625 375 "/>
<path style=" stroke:none;fill-rule:nonzero;fill:rgb(55.294118%,42.352941%,62.352941%);fill-opacity:1;" d="M 453.125 187.5 L 390.625 187.5 L 390.625 54.6875 C 390.625 41.742188 380.132812 31.25 367.1875 31.25 L 54.6875 31.25 C 41.742188 31.25 31.25 41.742188 31.25 54.6875 L 31.25 414.0625 C 31.25 444.265625 55.734375 468.75 85.9375 468.75 L 429.6875 468.75 C 459.890625 468.75 484.375 444.265625 484.375 414.0625 L 484.375 218.75 C 484.375 201.492188 470.382812 187.5 453.125 187.5 Z M 85.9375 453.125 C 64.363281 453.125 46.875 435.636719 46.875 414.0625 L 46.875 390.625 L 289.0625 390.625 C 293.378906 390.625 296.875 387.128906 296.875 382.8125 C 296.875 378.496094 293.378906 375 289.0625 375 L 46.875 375 L 46.875 54.6875 C 46.875 50.371094 50.371094 46.875 54.6875 46.875 L 367.1875 46.875 C 371.503906 46.875 375 50.371094 375 54.6875 L 375 414.0625 C 374.792969 428.644531 380.417969 442.707031 390.625 453.125 Z M 468.75 414.0625 C 468.75 435.636719 451.261719 453.125 429.6875 453.125 C 419.222656 453.476562 409.082031 449.476562 401.679688 442.070312 C 394.273438 434.667969 390.273438 424.527344 390.625 414.0625 L 390.625 203.125 L 426.25 203.125 C 423.441406 207.855469 421.933594 213.246094 421.875 218.75 L 421.875 351.5625 C 421.875 355.878906 425.371094 359.375 429.6875 359.375 C 434.003906 359.375 437.5 355.878906 437.5 351.5625 L 437.5 218.75 C 437.5 210.121094 444.496094 203.125 453.125 203.125 C 461.753906 203.125 468.75 210.121094 468.75 218.75 Z M 468.75 414.0625 "/>
<path style=" stroke:none;fill-rule:nonzero;fill:rgb(55.294118%,42.352941%,62.352941%);fill-opacity:1;" d="M 78.125 406.25 C 73.808594 406.25 70.3125 409.746094 70.3125 414.0625 L 70.3125 429.6875 C 70.3125 434.003906 73.808594 437.5 78.125 437.5 C 82.441406 437.5 85.9375 434.003906 85.9375 429.6875 L 85.9375 414.0625 C 85.9375 409.746094 82.441406 406.25 78.125 406.25 Z M 117.1875 406.25 C 112.871094 406.25 109.375 409.746094 109.375 414.0625 L 109.375 429.6875 C 109.375 434.003906 112.871094 437.5 117.1875 437.5 C 121.503906 437.5 125 434.003906 125 429.6875 L 125 414.0625 C 125 409.746094 121.503906 406.25 117.1875 406.25 Z M 156.25 406.25 C 151.933594 406.25 148.4375 409.746094 148.4375 414.0625 L 148.4375 429.6875 C 148.4375 434.003906 151.933594 437.5 156.25 437.5 C 160.566406 437.5 164.0625 434.003906 164.0625 429.6875 L 164.0625 414.0625 C 164.0625 409.746094 160.566406 406.25 156.25 406.25 Z M 195.3125 406.25 C 190.996094 406.25 187.5 409.746094 187.5 414.0625 L 187.5 429.6875 C 187.5 434.003906 190.996094 437.5 195.3125 437.5 C 199.628906 437.5 203.125 434.003906 203.125 429.6875 L 203.125 414.0625 C 203.125 409.746094 199.628906 406.25 195.3125 406.25 Z M 234.375 406.25 C 230.058594 406.25 226.5625 409.746094 226.5625 414.0625 L 226.5625 429.6875 C 226.5625 434.003906 230.058594 437.5 234.375 437.5 C 238.691406 437.5 242.1875 434.003906 242.1875 429.6875 L 242.1875 414.0625 C 242.1875 409.746094 238.691406 406.25 234.375 406.25 Z M 273.4375 406.25 C 269.121094 406.25 265.625 409.746094 265.625 414.0625 L 265.625 429.6875 C 265.625 434.003906 269.121094 437.5 273.4375 437.5 C 277.753906 437.5 281.25 434.003906 281.25 429.6875 L 281.25 414.0625 C 281.25 409.746094 277.753906 406.25 273.4375 406.25 Z M 312.5 406.25 C 308.183594 406.25 304.6875 409.746094 304.6875 414.0625 L 304.6875 429.6875 C 304.6875 434.003906 308.183594 437.5 312.5 437.5 C 316.816406 437.5 320.3125 434.003906 320.3125 429.6875 L 320.3125 414.0625 C 320.3125 409.746094 316.816406 406.25 312.5 406.25 Z M 351.5625 406.25 C 347.246094 406.25 343.75 409.746094 343.75 414.0625 L 343.75 429.6875 C 343.75 434.003906 347.246094 437.5 351.5625 437.5 C 355.878906 437.5 359.375 434.003906 359.375 429.6875 L 359.375 414.0625 C 359.375 409.746094 355.878906 406.25 351.5625 406.25 Z M 351.5625 406.25 "/>
</g>
</svg>
